module gitlab.com/rodrigoodhin/gorec

go 1.17

require (
	github.com/briandowns/spinner v1.18.1
	github.com/dustin/go-humanize v1.0.0
	github.com/go-git/go-git/v5 v5.4.2
	github.com/olekukonko/tablewriter v0.0.5
)

require (
	github.com/Microsoft/go-winio v0.4.16 // indirect
	github.com/ProtonMail/go-crypto v0.0.0-20210428141323-04723f9f07d7 // indirect
	github.com/acomagu/bufpipe v1.0.3 // indirect
	github.com/emirpasic/gods v1.12.0 // indirect
	github.com/fatih/color v1.7.0 // indirect
	github.com/go-git/gcfg v1.5.0 // indirect
	github.com/go-git/go-billy/v5 v5.3.1 // indirect
	github.com/imdario/mergo v0.3.12 // indirect
	github.com/jbenet/go-context v0.0.0-20150711004518-d14ea06fba99 // indirect
	github.com/kevinburke/ssh_config v0.0.0-20201106050909-4977a11b4351 // indirect
	github.com/mattn/go-colorable v0.1.2 // indirect
	github.com/mattn/go-isatty v0.0.8 // indirect
	github.com/mattn/go-runewidth v0.0.9 // indirect
	github.com/mitchellh/go-homedir v1.1.0 // indirect
	github.com/sergi/go-diff v1.2.0 // indirect
	github.com/xanzy/ssh-agent v0.3.0 // indirect
	golang.org/x/crypto v0.0.0-20220307211146-efcb8507fb70 // indirect
	golang.org/x/net v0.0.0-20211112202133-69e39bad7dc2 // indirect
	golang.org/x/sys v0.0.0-20210615035016-665e8c7367d1 // indirect
	golang.org/x/text v0.3.7 // indirect
	gopkg.in/warnings.v0 v0.1.2 // indirect
)
